Chapter 1 분류분석 개요 | 데이터마이닝 with R
…
2-3. \(k\)개의 인근객체가 취하는 범주 중 최빈값을 새로운 객체 \(\mathbf{z}\)의 범주로 정한다.

위 알고리즘을 학습표본 Table 1.1와 두 새로운 객체 \((6, 7)^\top\) 및 \((4, 2)^\top\)에 적용해보자.

[단계 1] 우선 각 학습표본 객체에 대해 \(k\)값을 변화시키며 인접객체법으로 분류해보자. 이 때, 각 객체 스스로는 인접객체에 포함되지 않는다.

우선 아래 스크립트는 각 학습 객체간 유클리드 거리를 구한다.

train_pairwise_dist <- dist(train_df[, c("x1", "x2")], upper = TRUE) %>%
  broom::tidy()

train_pairwise_dist

## # A tibble: 42 x 3
##    item1 item2 distance
##    <int> <int>    <dbl>
##  1     2     1     4.12
##  2     3     1     2.24
##  3     4     1     3.16
##  4     5     1     2.24
##  5     6     1     3.61
##  6     7     1     4.12
##  7     1     2     4.12
##  8     3     2     5.83
##  9     4     2     5   
## 10     5     2     3.16
## # … with 32 more rows

각 객체별로 가장 인접한 객체 순으로 순서(rank)를 구한다.

train_nn_rank <- train_pairwise_dist %>%
  group_by(item1) %>%
  mutate(nn_rank = rank(distance, ties.method = "random")) %>%
  ungroup() %>%
  arrange(item1, nn_rank)

train_nn_rank

## # A tibble: 42 x 4
##    item1 item2 distance nn_rank
##    <int> <int>    <dbl>   <int>
##  1     1     5     2.24       1
##  2     1     3     2.24       2
##  3     1     4     3.16       3
##  4     1     6     3.61       4
##  5     1     2     4.12       5
##  6     1     7     4.12       6
##  7     2     6     2.83       1
##  8     2     5     3.16       2
##  9     2     1     4.12       3
## 10     2     4     5          4
## # … with 32 more rows
…
loo_cv

## # A tibble: 42 x 5
##    item1     k y_hat     n y    
##    <int> <int> <fct> <int> <fct>
##  1     1     1 1         1 1    
##  2     1     2 1         1 1    
##  3     1     3 2         2 1    
##  4     1     4 1         2 1    
##  5     1     5 2         3 1    
##  6     1     6 2         4 1    
##  7     2     1 1         1 2    
##  8     2     2 1         2 2    
##  9     2     3 1         3 2    
## 10     2     4 1         3 2    
## # … with 32 more rows
…
