Chapter 7 판별분석 | 데이터마이닝 with R
…
iris_lda_fit <- MASS::lda(class ~ x1 + x2 + x3 + x4, iris_train_df)

iris_lda_result <- iris_train_df %>%
  bind_cols(
    predict(iris_lda_fit, .)$posterior %>%
      as_data_frame()
    ) %>%
  mutate(
    predicted_class = predict(iris_lda_fit, .)$class
  )

print(iris_lda_result)

## # A tibble: 90 x 10
##       x1    x2    x3    x4 class     id setosa versicolor
##    <dbl> <dbl> <dbl> <dbl> <fct>  <int>  <dbl>      <dbl>
##  1   5.1   3.5   1.4   0.2 setosa     1   1      5.57e-22
##  2   4.9   3     1.4   0.2 setosa     2   1      3.32e-17
##  3   4.7   3.2   1.3   0.2 setosa     3   1      2.75e-19
##  4   4.6   3.1   1.5   0.2 setosa     4   1      8.12e-17
##  5   5     3.6   1.4   0.2 setosa     5   1      1.14e-22
##  6   5.4   3.9   1.7   0.4 setosa     6   1      3.20e-21
##  7   4.6   3.4   1.4   0.3 setosa     7   1      8.74e-19
##  8   5     3.4   1.5   0.2 setosa     8   1      3.27e-20
##  9   4.4   2.9   1.4   0.2 setosa     9   1.00   2.22e-15
## 10   4.9   3.1   1.5   0.1 setosa    10   1      9.36e-19
## # … with 80 more rows, and 2 more variables:
## #   virginica <dbl>, predicted_class <fct>
…
