Chapter 13 비계층적 군집방법 | 데이터마이닝 with R
…
  return(res)
}

D_jih <- pmap_dfr(
  swap_ids, 
  update_distance,
  distance_df = pairwise_distance_df,
  center_ids = M$id
  )

D_jih

## # A tibble: 24 x 4
##        j distance     i     h
##    <int>    <dbl> <dbl> <dbl>
##  1     3     7.21     4     1
##  2     5     9.22     4     1
##  3     6    10.4      4     1
##  4     1     2.24     4     3
##  5     5     3.61     4     3
##  6     6     4.12     4     3
##  7     1     2.24     4     5
##  8     3     3.61     4     5
##  9     6     1.41     4     5
## 10     1     2.24     4     6
## # … with 14 more rows

# 거리의 변화량
C_jih <- D_j %>%
  inner_join(D_jih, by = "j", suffix = c("", "_new")) %>%
  mutate(diff_distance = distance_new - distance)

C_jih

## # A tibble: 24 x 6
##        j distance distance_new     i     h diff_distance
##    <int>    <dbl>        <dbl> <dbl> <dbl>         <dbl>
##  1     1     2.24         2.24     4     3         0    
##  2     1     2.24         2.24     4     5         0    
##  3     1     2.24         2.24     4     6         0    
##  4     1     2.24         9.43     2     3         7.20 
##  5     1     2.24        10.4      2     5         8.20 
##  6     1     2.24        10.4      2     6         8.20 
##  7     3     2.83         7.21     4     1         4.38 
##  8     3     2.83         3.61     4     5         0.777
##  9     3     2.83         4.12     4     6         1.29 
## 10     3     2.83         2.83     2     1         0    
## # … with 14 more rows
…
