Chapter 14 추천시스템 | 데이터마이닝 with R
…
우선, 각 고객이 매긴 평균 평점 \(\bar{v}_i\)을 각 아이템에 대한 평점 \(v_{ij}\)에서 제외하여 mean_centered rating을 아래와 같이 구한다.

centered_rating_df <- rating_df %>%
  group_by(customer) %>%
  mutate(centered_rating = rating - mean(rating)) %>%
  ungroup()

print(centered_rating_df)

## # A tibble: 33 x 4
##    customer item   rating centered_rating
##    <chr>    <chr>   <dbl>           <dbl>
##  1 고객 1   상품 1      5           2.4  
##  2 고객 1   상품 3      4           1.4  
##  3 고객 1   상품 5      1          -1.6  
##  4 고객 1   상품 6      0          -2.6  
##  5 고객 1   상품 7      3           0.400
##  6 고객 2   상품 1      4           0.75 
##  7 고객 2   상품 2      4           0.75 
##  8 고객 2   상품 3      4           0.75 
##  9 고객 2   상품 7      1          -2.25 
## 10 고객 3   상품 1      5           2    
## # … with 23 more rows
…
